Data Science Lecture
…
nhanes

## # A tibble: 9,544 x 8
##    subjectId   age sex    height weight ethnicity education    bornInUS
##        <dbl> <dbl> <fct>   <dbl>  <dbl> <fct>     <fct>        <fct>   
##  1     83732    62 male     184.   94.8 white     college      yes     
##  2     83733    53 male     171.   90.4 white     high_school  no      
##  3     83734    78 male     170.   83.4 white     high_school  yes     
##  4     83735    56 female   161.  110.  white     college      yes     
##  5     83736    42 female   165.   55.2 black     some_college yes     
##  6     83737    72 female   150    64.4 mexican   9to11        no      
##  7     83738    11 female   144.   37.2 mexican   <NA>         yes     
##  8     83739     4 male     102.   16.4 white     <NA>         yes     
##  9     83740     1 male      NA    10.1 hispanic  <NA>         yes     
## 10     83741    22 male     165.   76.6 black     some_college yes     
## #  with 9,534 more rows
…
## # A tibble: 1 x 1
##   `mean(height)`
##            <dbl>
## 1           149.

Die Funktion is.na fragt: Ist der Wert not available? Das Rufzeichen (!) ist der not operator; er verkehrt die Antwort auf eine Frage ins Gegenteil.

Wie sieht es mit 7-jhrigen Mdchen aus? Und 12-jhrigen Jungen? usw.? Wir verwenden group_by statt filter:

nhanes %>%
filter( !is.na(height) ) %>%
group_by( sex, age ) %>%
summarise( mean(height) )

## # A tibble: 158 x 3
## # Groups:   sex [2]
##    sex     age `mean(height)`
##    <fct> <dbl>          <dbl>
##  1 male      2           91.2
##  2 male      3           99.7
##  3 male      4          107. 
##  4 male      5          113. 
##  5 male      6          119. 
##  6 male      7          126. 
##  7 male      8          133. 
##  8 male      9          137. 
##  9 male     10          142. 
## 10 male     11          149. 
## #  with 148 more rows
…
