Data Science Lecture
…
(Die daraufhin angezeigten Meldungen sind unwichtig.)

Beispieldaten fr heute

Unsere heutigen Beispieldaten stammen von der NHANES-Studie des Center for Disease Control and Prevention (CDC). Wir verwdnden die Daten von 2015-2016 (Continuous NHANES, data set I), and zwar den demographischen Datensatz (DEMO) und den and theBody Measures-Datensatz (BMX). Wir laden erste die beiden Dateien herunter: DEMO_I.XPT und BMX_I.XPT. (Beide Links knnen angeklickt werden.) Eine ausfhrliche Beschreibung findet sich im study overview und in der Dokumentation zu DEMO und zu BMX.

Laden der Daten in RStudio

Der folgende Befehl, eingetippt in RStudio, ldt die Datei DEMO_I.XPT. Damit das funktioniert, muss man vorher im Men Session / Set workling directory das Verzeichnis whlen, in dem man die heruntergelandene Datei abgelegt hat. Die Funktion read_xpt ist eine spezielle Funktion, die das von NHANES verwendete XPT-Datenformat lesen kann.

haven::read_xpt( "DEMO_I.XPT" )

## # A tibble: 9,971 x 47
##     SEQN SDDSRVYR RIDSTATR RIAGENDR RIDAGEYR RIDAGEMN RIDRETH1 RIDRETH3
##    <dbl>    <dbl>    <dbl>    <dbl>    <dbl>    <dbl>    <dbl>    <dbl>
##  1 83732        9        2        1       62       NA        3        3
##  2 83733        9        2        1       53       NA        3        3
##  3 83734        9        2        1       78       NA        3        3
##  4 83735        9        2        2       56       NA        3        3
##  5 83736        9        2        2       42       NA        4        4
##  6 83737        9        2        2       72       NA        1        1
##  7 83738        9        2        2       11       NA        1        1
##  8 83739        9        2        1        4       NA        3        3
##  9 83740        9        2        1        1       13        2        2
## 10 83741        9        2        1       22       NA        4        4
## #  with 9,961 more rows, and 39 more variables: RIDEXMON <dbl>,
## #   RIDEXAGM <dbl>, DMQMILIZ <dbl>, DMQADFC <dbl>, DMDBORN4 <dbl>,
## #   DMDCITZN <dbl>, DMDYRSUS <dbl>, DMDEDUC3 <dbl>, DMDEDUC2 <dbl>,
## #   DMDMARTL <dbl>, RIDEXPRG <dbl>, SIALANG <dbl>, SIAPROXY <dbl>,
## #   SIAINTRP <dbl>, FIALANG <dbl>, FIAPROXY <dbl>, FIAINTRP <dbl>,
## #   MIALANG <dbl>, MIAPROXY <dbl>, MIAINTRP <dbl>, AIALANGA <dbl>,
## #   DMDHHSIZ <dbl>, DMDFMSIZ <dbl>, DMDHHSZA <dbl>, DMDHHSZB <dbl>,
## #   DMDHHSZE <dbl>, DMDHRGND <dbl>, DMDHRAGE <dbl>, DMDHRBR4 <dbl>,
## #   DMDHREDU <dbl>, DMDHRMAR <dbl>, DMDHSEDU <dbl>, WTINT2YR <dbl>,
…
R antwortet auf den Befehl damit, dass es den Anfang der eingelesenen Tabelle ausgibt, die Tabelle aber gleich wieder vergisst. Um die Tabelle zu speichern, muss man sie einer Variablen (d.h., einem Speicherort mit einem Namen) zuweisen. Wir whlen den namen demo:

haven::read_xpt( "DEMO_I.XPT" ) -> demo

Wir lesen die andere Tabelle ebenso ein:

haven::read_xpt( "BMX_I.XPT" ) -> bmx

Die Variablen enthalten nun die Tabellen. Wenn man ihren Namen eingibt, zeigt R den Inhalt an:

bmx

## # A tibble: 9,544 x 26
##     SEQN BMDSTATS BMXWT BMIWT BMXRECUM BMIRECUM BMXHEAD BMIHEAD BMXHT BMIHT
##    <dbl>    <dbl> <dbl> <dbl>    <dbl>    <dbl>   <dbl>   <dbl> <dbl> <dbl>
##  1 83732        1  94.8    NA       NA       NA      NA      NA  184.    NA
##  2 83733        1  90.4    NA       NA       NA      NA      NA  171.    NA
##  3 83734        1  83.4    NA       NA       NA      NA      NA  170.    NA
##  4 83735        1 110.     NA       NA       NA      NA      NA  161.    NA
##  5 83736        3  55.2    NA       NA       NA      NA      NA  165.    NA
##  6 83737        1  64.4    NA       NA       NA      NA      NA  150     NA
##  7 83738        1  37.2    NA       NA       NA      NA      NA  144.    NA
##  8 83739        1  16.4    NA       NA       NA      NA      NA  102.    NA
##  9 83740        3  10.1    NA       NA        1      NA      NA   NA     NA
## 10 83741        1  76.6    NA       NA       NA      NA      NA  165.    NA
## #  with 9,534 more rows, and 16 more variables: BMXBMI <dbl>,
## #   BMDBMIC <dbl>, BMXLEG <dbl>, BMILEG <dbl>, BMXARML <dbl>,
## #   BMIARML <dbl>, BMXARMC <dbl>, BMIARMC <dbl>, BMXWAIST <dbl>,
## #   BMIWAIST <dbl>, BMXSAD1 <dbl>, BMXSAD2 <dbl>, BMXSAD3 <dbl>,
## #   BMXSAD4 <dbl>, BMDAVSAD <dbl>, BMDSADCM <dbl>

Vorbereiten der Daten

Wir mssen beide Tabellen zusammen fassen (table join). Zusammengehrende Zeilen erkennt man daran, dass sie dieselbe Personen-Nummer (SEQN) enthalten. Wir fgen die beiden Tabellen mit der inner_join-Funktion so zusammen, dass jeweils eine Zeile aus der ersten tabelle und eine Zeile aus der zweiten zusammengefgt werden, wobei zusammengehrige Zeilen daran erkannt werden sollen, dass sie dieselbe Personen-ID (Spalte SEQN) enthalten:

inner_join( demo, bmx, by="SEQN")

## # A tibble: 9,544 x 72
##     SEQN SDDSRVYR RIDSTATR RIAGENDR RIDAGEYR RIDAGEMN RIDRETH1 RIDRETH3
##    <dbl>    <dbl>    <dbl>    <dbl>    <dbl>    <dbl>    <dbl>    <dbl>
##  1 83732        9        2        1       62       NA        3        3
##  2 83733        9        2        1       53       NA        3        3
##  3 83734        9        2        1       78       NA        3        3
##  4 83735        9        2        2       56       NA        3        3
##  5 83736        9        2        2       42       NA        4        4
##  6 83737        9        2        2       72       NA        1        1
##  7 83738        9        2        2       11       NA        1        1
##  8 83739        9        2        1        4       NA        3        3
##  9 83740        9        2        1        1       13        2        2
## 10 83741        9        2        1       22       NA        4        4
## #  with 9,534 more rows, and 64 more variables: RIDEXMON <dbl>,
## #   RIDEXAGM <dbl>, DMQMILIZ <dbl>, DMQADFC <dbl>, DMDBORN4 <dbl>,
## #   DMDCITZN <dbl>, DMDYRSUS <dbl>, DMDEDUC3 <dbl>, DMDEDUC2 <dbl>,
## #   DMDMARTL <dbl>, RIDEXPRG <dbl>, SIALANG <dbl>, SIAPROXY <dbl>,
## #   SIAINTRP <dbl>, FIALANG <dbl>, FIAPROXY <dbl>, FIAINTRP <dbl>,
## #   MIALANG <dbl>, MIAPROXY <dbl>, MIAINTRP <dbl>, AIALANGA <dbl>,
## #   DMDHHSIZ <dbl>, DMDFMSIZ <dbl>, DMDHHSZA <dbl>, DMDHHSZB <dbl>,
## #   DMDHHSZE <dbl>, DMDHRGND <dbl>, DMDHRAGE <dbl>, DMDHRBR4 <dbl>,
## #   DMDHREDU <dbl>, DMDHRMAR <dbl>, DMDHSEDU <dbl>, WTINT2YR <dbl>,
…
Wir whlen aus diesen 72 Spalten diejenigen aus, die wir brauchen. Dies geschieht mit select. Bei der Gelegenheit ersetzen wir die kryptischen Abkrzungen durch verstndlicherer Spalten-berschriften:

inner_join( demo, bmx, by="SEQN" ) %>%
select( 
   subjectId = SEQN,
   age = RIDAGEYR,
   sex = RIAGENDR,
   height = BMXHT,
   weight = BMXWT ) 

## # A tibble: 9,544 x 5
##    subjectId   age   sex height weight
##        <dbl> <dbl> <dbl>  <dbl>  <dbl>
##  1     83732    62     1   184.   94.8
##  2     83733    53     1   171.   90.4
##  3     83734    78     1   170.   83.4
##  4     83735    56     2   161.  110. 
##  5     83736    42     2   165.   55.2
##  6     83737    72     2   150    64.4
##  7     83738    11     2   144.   37.2
##  8     83739     4     1   102.   16.4
##  9     83740     1     1    NA    10.1
## 10     83741    22     1   165.   76.6
## #  with 9,534 more rows
…
Den komplizierten mutate-Befehl besprechen wir nicht weiter; das kommt spter.

Hier haben wir nun eine Analyse-Pipeline mit zwei %>%-Pipes. Die erste Pipe schiebt die Tabelle von inner_join (was die beiden ursprnglichen Tabellen zusammen gefgt hat) zu select (was die bentigten Spalten ausgewhlt und umbenannt hat) und die zweite %>%-Pipe schiebt es zu mutate, was die numerischen Codes durch beschreibende Wrter ersetzt. Zuletzt schieben wir das Ergebnis mit -> in eine Variable namens nhanes. Diese enthlt nun:

nhanes

## # A tibble: 9,544 x 8
##    subjectId   age sex    height weight ethnicity education    bornInUS
##        <dbl> <dbl> <fct>   <dbl>  <dbl> <fct>     <fct>        <fct>   
##  1     83732    62 male     184.   94.8 white     college      yes     
##  2     83733    53 male     171.   90.4 white     high_school  no      
##  3     83734    78 male     170.   83.4 white     high_school  yes     
##  4     83735    56 female   161.  110.  white     college      yes     
##  5     83736    42 female   165.   55.2 black     some_college yes     
##  6     83737    72 female   150    64.4 mexican   9to11        no      
##  7     83738    11 female   144.   37.2 mexican   <NA>         yes     
##  8     83739     4 male     102.   16.4 white     <NA>         yes     
##  9     83740     1 male      NA    10.1 hispanic  <NA>         yes     
## 10     83741    22 male     165.   76.6 black     some_college yes     
## #  with 9,534 more rows
…
