Data Science Lecture
…
## See spec(...) for full column specifications.

sampleTable

## # A tibble: 179 x 3
##    sample     subject  condition
##    <chr>      <chr>    <fct>    
##  1 SRR1146076 CASP1234 normal   
##  2 SRR1146077 M3059    psoriatic
##  3 SRR1146078 M3171    psoriatic
##  4 SRR1146079 M3418    psoriatic
##  5 SRR1146080 M3978    psoriatic
##  6 SRR1146081 M4208    psoriatic
##  7 SRR1146082 M4257    psoriatic
##  8 SRR1146083 M4271    psoriatic
##  9 SRR1146084 M4271    psoriatic
## 10 SRR1146085 M4277    normal   
## #  with 169 more rows
…
Die spread-Funktion erlaubt uns, die Werte fr krank und gesund nebeneinder statt untereinander zu sehen:

a %>% spread( condition, mean_tpm )

## # A tibble: 58,037 x 3
## # Groups:   gene_id [58,037]
##    gene_id         psoriatic normal
##    <chr>               <dbl>  <dbl>
##  1 ENSG00000000003     14.2   21.4 
##  2 ENSG00000000005      1.12   3.01
##  3 ENSG00000000419     23.7   19.8 
##  4 ENSG00000000457     15.0   17.1 
##  5 ENSG00000000460      7.61   7.00
##  6 ENSG00000000938      6.66   5.04
##  7 ENSG00000000971    134.   226.  
##  8 ENSG00000001036     28.8   39.1 
##  9 ENSG00000001084     38.5   39.5 
## 10 ENSG00000001167     19.2   19.3 
## #  with 58,027 more rows
…
