HA7_mit_Loesungen.utf8.md
…
##      DDX11L1       WASH7P    MIR6859-1  MIR1302-2HG      FAM138A       OR4G4P 
## 0.0009132122 0.3458017907 0.0000000000 0.0002638352 0.0000000000 0.0008138694

Den apply-Befehl haben wir aber bisher nie besprochen. Zur bung verwenden wir daher, fr denselben Zweck, die Tidyverse-Funktionen, die wir kennen (auch wenn das deutlich umstndlicher ist).

Aufgabe: Finden Sie dennoch (vielleicht durch googlen) heraus, was die apply-Funktion macht. Was bedeutet die 1 vor var?

Antwort: Apply wendet die Funktion var auf jede Zeile der Matrix log2(1+tissueMedians) an, und jede Zeile entspricht einem Gen: wir erhaltenb also fr jedes Gen die Varianz ber alle Spalten (Gewebe). Die 1 als zweiter Parameter bedeutet das var auf jede Zeile angewendet werden soll, eine 2 bedeutet: auf jede Spalte.

Um Tidyverse zu verwenden, wandeln wir die Matrix zunchst in eine Tidyverse-Tabelle (tibble) um, wie folgt:

tissueMedians %>% as_tibble( rownames = "gene" )

## # A tibble: 56,200 x 55
##    gene  `Adipose - Subc `Adipose - Visc `Adrenal Gland` `Artery - Aorta`
##    <chr>            <dbl>            <dbl>           <dbl>            <dbl>
##  1 DDX1           0                0               0                0     
##  2 WASH           4.06             3.37            2.69             4.05  
##  3 MIR6           0                0               0                0     
##  4 MIR1           0                0               0                0     
##  5 FAM1           0                0               0                0     
##  6 OR4G           0                0               0.0364           0     
##  7 OR4G           0.0406           0.0407          0.0544           0.0292
##  8 OR4F5           0.0454           0.0446          0.0580           0     
##  9 RP11           0.0184           0.0215          0.0162           0     
## 10 CICP           0.0193           0.0376          0.0154           0.0243
## #  with 56,190 more rows, and 50 more variables: `Artery - Coronary` <dbl>,
## #   `Artery - Tibial` <dbl>, Bladder <dbl>, `Brain - Amygdala` <dbl>, `Brain -
## #   Anterior cingulate cortex (BA24)` <dbl>, `Brain - Caudate (basal
## #   ganglia)` <dbl>, `Brain - Cerebellar Hemisphere` <dbl>, `Brain -
## #   Cerebellum` <dbl>, `Brain - Cortex` <dbl>, `Brain - Frontal Cortex
## #   (BA9)` <dbl>, `Brain - Hippocampus` <dbl>, `Brain - Hypothalamus` <dbl>,
## #   `Brain - Nucleus accumbens (basal ganglia)` <dbl>, `Brain - Putamen (basal
## #   ganglia)` <dbl>, `Brain - Spinal cord (cervical c-1)` <dbl>, `Brain -
## #   Substantia nigra` <dbl>, `Breast - Mammary Tissue` <dbl>, `Cells - Cultured
…
Die ist eine breite Tabelle, wir wollen aber eine lange Tabelle, wie im folgenden:

## # A tibble: 3,034,800 x 3
##    gene         tissue                    tpm
##    <chr>        <chr>                   <dbl>
##  1 DDX11L1      Adipose - Subcutaneous 0     
##  2 WASH7P       Adipose - Subcutaneous 4.06  
##  3 MIR6859-1    Adipose - Subcutaneous 0     
##  4 MIR1302-2HG  Adipose - Subcutaneous 0     
##  5 FAM138A      Adipose - Subcutaneous 0     
##  6 OR4G4P       Adipose - Subcutaneous 0     
##  7 OR4G11P      Adipose - Subcutaneous 0.0406
##  8 OR4F5        Adipose - Subcutaneous 0.0454
##  9 RP11-34P13.7 Adipose - Subcutaneous 0.0184
## 10 CICP27       Adipose - Subcutaneous 0.0193
## #  with 3,034,790 more rows

Aufgabe: Mit welchem Tidyverse-Verb kommen Sie von der breiten zur langen Tabelle? Probieren Sie das in Ihrer eigenen R-Sitzung aus.

Antwort (Beginn) Von einer breiten zu einer langen Tabelle kommt man mit gather, wie oben gezeigt. Die Frage htte lauten sollen: wie kommt man von einer langen zu einer breiten Tabelle.

Dazu verwendet mand as Gegenteil von gather: spread:

longTable %>%
spread( tissue, tpm )

## # A tibble: 56,200 x 55
##    gene  `Adipose - Subc `Adipose - Visc `Adrenal Gland` `Artery - Aorta`
##    <chr>            <dbl>            <dbl>           <dbl>            <dbl>
##  1 5_8S                0                0               0                0
##  2 5_8S                0                0               0                0
##  3 5_8S                0                0               0                0
##  4 5_8S                0                0               0                0
##  5 5_8S                0                0               0                0
##  6 5S_r                0                0               0                0
##  7 5S_r                0                0               0                0
##  8 5S_r                0                0               0                0
##  9 5S_r                0                0               0                0
## 10 5S_r                0                0               0                0
## #  with 56,190 more rows, and 50 more variables: `Artery - Coronary` <dbl>,
## #   `Artery - Tibial` <dbl>, Bladder <dbl>, `Brain - Amygdala` <dbl>, `Brain -
## #   Anterior cingulate cortex (BA24)` <dbl>, `Brain - Caudate (basal
## #   ganglia)` <dbl>, `Brain - Cerebellar Hemisphere` <dbl>, `Brain -
## #   Cerebellum` <dbl>, `Brain - Cortex` <dbl>, `Brain - Frontal Cortex
## #   (BA9)` <dbl>, `Brain - Hippocampus` <dbl>, `Brain - Hypothalamus` <dbl>,
## #   `Brain - Nucleus accumbens (basal ganglia)` <dbl>, `Brain - Putamen (basal
## #   ganglia)` <dbl>, `Brain - Spinal cord (cervical c-1)` <dbl>, `Brain -
## #   Substantia nigra` <dbl>, `Breast - Mammary Tissue` <dbl>, `Cells - Cultured
…
Antwort (Ende)

Nun mchten wir fr jedes Gen Mittelwert und Varianz bestimmen, d.h., wir suchen die folgende Tabelle:

## # A tibble: 56,200 x 3
##    gene    mean   var
##    <chr>  <dbl> <dbl>
##  1 GFAP    3.16  17.3
##  2 DES     6.57  15.8
##  3 ACTG2   4.60  14.4
##  4 MT3     3.59  13.4
##  5 MYH11   6.18  12.5
##  6 IGKC    6.26  12.3
##  7 SNAP25  3.49  11.7
##  8 IGHA1   4.95  11.4
##  9 CNN1    5.00  11.4
## 10 IGKJ2   4.89  11.3
## #  with 56,190 more rows
…
Aufgabe Gibt es noch mehr Gene, die in der Leber viel strker als in den anderen Geweben exprimiert sind? Finden Sie alle Gene, fr die die Expression in der Leber mindestens viermal so hoch ist wie in allen anderen Geweben.

Antwort: Die folgenden Hinweise fanden sich schon in der Aufgabenstellung, aber ohne R-Code. Nun ist der R-Code eingeblendet.

Es gibt verscheidene Mglichkeiten, diese (nicht ganz einfache) Aufgabe zu lsen. Eine wre, zunchst eine Tabelle mit nur den Leber-Expressionswerten zu erstellen

longTable %>%
mutate( liver_expr = log2( 1 + tpm ) ) %>%
filter( tissue == "Liver" ) %>%
select( -tissue, -tpm ) -> liverOnlyTable

liverOnlyTable

## # A tibble: 56,200 x 2
##    gene         liver_expr
##    <chr>             <dbl>
##  1 DDX11L1          0     
##  2 WASH7P           1.47  
##  3 MIR6859-1        0     
##  4 MIR1302-2HG      0     
##  5 FAM138A          0     
##  6 OR4G4P           0.0472
##  7 OR4G11P          0.0612
##  8 OR4F5            0.0848
##  9 RP11-34P13.7     0.0241
## 10 CICP27           0.0326
## #  with 56,190 more rows

Dann eine Tabelle mit allen Werten, ausser denen der Leber. Dann knnen wir mit group_by, summerize und max die Maxiuma finden

longTable %>%
mutate( expr = log2( 1 + tpm ) ) %>%
filter( tissue != "Liver" ) %>%
group_by( gene ) %>%
summarise( max = max(expr) ) -> NonLiverMaxTable

NonLiverMaxTable

## # A tibble: 56,200 x 2
##    gene          max
##    <chr>       <dbl>
##  1 5_8S_rRNA_1 0    
##  2 5_8S_rRNA_2 0    
##  3 5_8S_rRNA_3 0    
##  4 5_8S_rRNA_4 0    
##  5 5_8S_rRNA_5 0    
##  6 5S_rRNA_1   0    
##  7 5S_rRNA_10  0.462
##  8 5S_rRNA_11  0    
##  9 5S_rRNA_12  0    
## 10 5S_rRNA_13  0    
## #  with 56,190 more rows

Nun verbinden wir die beiden Tabllen mit left_join und filtern auf die Zeilen, wo expr in Leber mehr als 2 Log2-Einheiten grer (also, mindestens 4-mal so gro vor dem log2) ist als max in der anderen Tabelle

left_join( liverOnlyTable, NonLiverMaxTable, by="gene" ) %>%
arrange( desc( liver_expr - max ) ) %>%
filter( liver_expr - max > 2 ) 

## # A tibble: 245 x 3
##    gene     liver_expr   max
##    <chr>         <dbl> <dbl>
##  1 APOA2          12.4 1.15 
##  2 CRP            12.5 2.44 
##  3 FGB            12.8 2.97 
##  4 APOH           11.5 2.41 
##  5 SERPINC1       10.0 0.991
##  6 FGG            12.5 3.53 
##  7 APCS           10.7 1.71 
##  8 AGXT           10.8 2.01 
##  9 FGA            12.4 3.75 
## 10 ORM2           11.8 3.28 
## #  with 235 more rows
…
