…
RNA-Seq count table:
- Jede Zeile ist ein Gen (bezeichnet durch die Ensembl-Gen-ID)
- Jede Spalte ist eine Probe (bezeichnet durch die Run-ID)
- Die Zahlen geben an, wie viele der RNA-Seq-Reads jedes Probe auf jedes der Gene aliniert wurde
- Die Original-Tabelle hatte 178 Proben (Spalten) und 58.037 Gene (Zeilen)

Pivoting:
- Um leichter arbeiten zu können, haben wir diese "breite" Tabelle in eine "lange Tabelle" umgewandelt, in der jede Zahl ihre eigene Zeile hat:

```
# A tibble: 10,330,586 x 3
   gene_id          sample      count
   <chr>            <chr>       <dbl>
 1 ENSG000000000034 SRR1146076  26160
 2 ENSG00000000005  SRR1146076  10965
 3 ENSG000000004192 SRR1146076  24011
 4 ENSG000000004573 SRR1146076  22893
 5 ENSG000000004606 SRR1146076   9436
 6 ENSG000000009382 SRR1146076   7422
 7 ENSG000000009715 SRR1146076 477885
 8 ENSG000000010363 SRR1146076  67564
 9 ENSG000000010840 SRR1146076  54799
10 ENSG000000011674 SRR1146076  35061
# … with 10,330,576 more rows
```
…
